mx\isban\multivendor\si\masterdata\ejb\impl\BOMasterDataImpl.class
mx\isban\multivendor\si\masterdata\dao\DAOMasterData.class
mx\isban\multivendor\si\masterdata\dao\impl\DAOMasterDataImpl.class
mx\isban\multivendor\si\constantes\ConstantesQueries.class
